Análisis de redes espaciales con sfnetworks
…
## <span style="color:#b3b3b3">Redes espaciales</span> <span style="color:#ffa500">*tidy* en R</span>

.left[
.pull-left-70[

```r
library(tidyverse)
library(sfnetworks)
roxel |>
  as_tibble() |>
  select(name, type)
```

```
# A tibble: 851 x 2
   name                  type       
   <chr>                 <fct>      
 1 Havixbecker Strasse   residential
 2 Pienersallee          secondary  
 3 Schulte-Bernd-Strasse residential
 4 <NA>                  path       
 5 Welsingheide          residential
 6 <NA>                  footway    
 7 <NA>                  footway    
 8 <NA>                  path       
 9 <NA>                  track      
10 <NA>                  track      
# ... with 841 more rows
```
…
```r
roxel
```
]

.pull-right-60[

```
Simple feature collection with 851 features and 2 fields
Geometry type: LINESTRING
Dimension:     XY
Bounding box:  xmin: 7.522594 ymin: 51.94151 xmax: 7.546705 ymax: 51.9612
Geodetic CRS:  WGS 84
# A tibble: 851 x 3
   name                  type                                 geometry
 * <chr>                 <fct>                        <LINESTRING [°]>
 1 Havixbecker Strasse   residential (7.533722 51.95556, 7.533461 51.~
 2 Pienersallee          secondary   (7.532442 51.95422, 7.53236 51.9~
 3 Schulte-Bernd-Strasse residential (7.532709 51.95209, 7.532823 51.~
 4 <NA>                  path        (7.540063 51.94468, 7.539696 51.~
 5 Welsingheide          residential (7.537673 51.9475, 7.537614 51.9~
 6 <NA>                  footway     (7.543791 51.94733, 7.54369 51.9~
 7 <NA>                  footway     (7.54012 51.94478, 7.539931 51.9~
 8 <NA>                  path        (7.53822 51.94546, 7.538131 51.9~
 9 <NA>                  track       (7.540063 51.94468, 7.540338 51.~
10 <NA>                  track       (7.5424 51.94599, 7.54205 51.946~
# ... with 841 more rows
```
…
.pull-right-60[

```
Simple feature collection with 701 features and 0 fields
Geometry type: POINT
Dimension:     XY
Bounding box:  xmin: 7.522622 ymin: 51.94151 xmax: 7.546705 ymax: 51.9612
Geodetic CRS:  WGS 84
# A tibble: 701 x 1
              geometry
           <POINT [°]>
 1 (7.533722 51.95556)
 2 (7.533461 51.95576)
 3 (7.532442 51.95422)
 4  (7.53209 51.95328)
 5 (7.532709 51.95209)
 6 (7.532869 51.95257)
 7 (7.540063 51.94468)
 8  (7.53822 51.94546)
 9  (7.537673 51.9475)
10 (7.537614 51.94562)
# ... with 691 more rows
```
…
